<svg width="44" height="44" viewBox="0 0 44 44" fill="none" xmlns="http://www.w3.org/2000/svg">
<rect x="13" y="15" width="18" height="15" rx="2" stroke="#005BFF" stroke-linecap="round"/>
<path d="M13 18.5L26.5 18.5" stroke="#005BFF" stroke-linecap="round"/>
<path d="M29 18.5L30.5 18.5" stroke="#005BFF" stroke-linecap="round"/>
<path d="M16 16L16 14" stroke="#005BFF" stroke-linecap="round"/>
<path d="M20 16L20 14" stroke="#005BFF" stroke-linecap="round"/>
<path d="M24 16L24 14" stroke="#005BFF" stroke-linecap="round"/>
<path d="M28 16L28 14" stroke="#005BFF" stroke-linecap="round"/>
<path d="M19 24.4L20.75 26L25 22" stroke="#005BFF" stroke-linecap="round"/>
</svg>
